데이터 과학 tidyverse 모형
…
5.1 데이터 정제

연속형 변수의 범위 확인과 마찬가지로 범주형 변수의 범위도 확인이 필요하다. 먼저 대통령 선거 득표 데이터를 바탕으로 시도명과 후보가 범주형 자료형임을 파악할 수 있다.

clean_df <- dirty_df %>% 
  select(-선거인수, -투표수) %>% 
  gather(후보, 득표수, -시도명) %>% 
  separate(득표수, into=c("득표수", "득표율"), sep="\r\n") %>% 
  mutate(득표수 = parse_number(득표수),
        득표율 = parse_number(득표율))

clean_df 

# A tibble: 85 x 4
   시도명         후보    득표수 득표율
   <fct>          <chr>    <dbl>  <dbl>
 1 서울특별시     문재인 2781345   42.3
 2 부산광역시     문재인  872127   38.7
 3 대구광역시     문재인  342620   21.8
 4 인천광역시     문재인  747090   41.2
 5 광주광역시     문재인  583847   61.1
 6 대전광역시     문재인  404545   42.9
 7 울산광역시     문재인  282794   38.1
 8 세종특별자치시 문재인   77767   51.1
 9 경기도         문재인 3319812   42.1
10 강원도         문재인  324768   34.2
# … with 75 more rows
…
