xwMOOC 모형
…
# Tidyverse
library(tidyverse)

# 시각화
library(cowplot)
library(trelliscopejs)
library(rbokeh)

# 모형
library(broom)

# 1. 데이터 -----
gapminder

# A tibble: 1,704 x 6
   country     continent  year lifeExp      pop gdpPercap
   <fct>       <fct>     <int>   <dbl>    <int>     <dbl>
 1 Afghanistan Asia       1952    28.8  8425333      779.
 2 Afghanistan Asia       1957    30.3  9240934      821.
 3 Afghanistan Asia       1962    32.0 10267083      853.
 4 Afghanistan Asia       1967    34.0 11537966      836.
 5 Afghanistan Asia       1972    36.1 13079460      740.
 6 Afghanistan Asia       1977    38.4 14880372      786.
 7 Afghanistan Asia       1982    39.9 12881816      978.
 8 Afghanistan Asia       1987    40.8 13867957      852.
 9 Afghanistan Asia       1992    41.7 16317921      649.
10 Afghanistan Asia       1997    41.8 22227415      635.
# ... with 1,694 more rows
…
# 2. 모형 -----
country_model <- function(df)
  lm(lifeExp ~ year, data=df)

by_country <- gapminder %>% 
  group_by(country, continent) %>% 
  nest() %>% 
  mutate(model = map(data, country_model),
         model_glance = map(model, glance),
         rsquare = map_dbl(model_glance, ~.$r.squared))

by_country %>% 
  arrange(-rsquare)

# A tibble: 142 x 6
   country           continent data        model  model_glance     rsquare
   <fct>             <fct>     <list>      <list> <list>             <dbl>
 1 Brazil            Americas  <tibble [1~ <S3: ~ <data.frame [1 ~   0.998
 2 Mauritania        Africa    <tibble [1~ <S3: ~ <data.frame [1 ~   0.998
 3 France            Europe    <tibble [1~ <S3: ~ <data.frame [1 ~   0.998
 4 Switzerland       Europe    <tibble [1~ <S3: ~ <data.frame [1 ~   0.997
 5 Pakistan          Asia      <tibble [1~ <S3: ~ <data.frame [1 ~   0.997
 6 Indonesia         Asia      <tibble [1~ <S3: ~ <data.frame [1 ~   0.997
 7 Equatorial Guinea Africa    <tibble [1~ <S3: ~ <data.frame [1 ~   0.997
 8 Comoros           Africa    <tibble [1~ <S3: ~ <data.frame [1 ~   0.997
 9 Nicaragua         Americas  <tibble [1~ <S3: ~ <data.frame [1 ~   0.997
10 Guatemala         Americas  <tibble [1~ <S3: ~ <data.frame [1 ~   0.997
# ... with 132 more rows
…
