xwMOOC 모형 - tidymodels
…
Hyper Parameter 탐색공간을 정의한다. 먼저 탐색할 Hyper Parameter를 정의하고 나서, grid_max_entropy() 크기를 size = 30으로 특정하여 빠른 시간내 탐색이 될 수 있도록 한다.

lightgbm_params <- dials::parameters(
        min_n(), 
        tree_depth()
    )

lightgbm_grid <- dials::grid_max_entropy(
        lightgbm_params, 
        size = 30)

lightgbm_grid

# A tibble: 30 x 2
   min_n tree_depth
   <int>      <int>
 1     6         13
 2     3         11
 3    10          7
 4    30          6
 5    29          2
 6    15          8
 7    19         13
 8    36          9
 9    13         12
10    21          1
# … with 20 more rows
…
