xwMOOC 모형
…
3.9 시험데이터 - 예측

predict() 함수를 사용하게 되면 예측모형에 대한 예측값을 생성시킬 수 있는데 broom 팩키지와 마찬가지로 사용해서 bind_cols() 함수를 사용하게 되면 데이터프레임으로 후속 작업이 가능한 형태로 구현이 가능하다.

test_pred <- test_iris %>% 
  bind_cols(iris_fit %>% predict(test_iris)) %>% 
  bind_cols(iris_fit %>% predict(test_iris, type = "prob"))

test_pred

# A tibble: 45 x 9
   sepal_length sepal_width petal_length petal_width species .pred_class
          <dbl>       <dbl>        <dbl>       <dbl> <fct>   <fct>      
 1          4.6         3.4          1.4         0.3 setosa  setosa     
 2          5           3.4          1.5         0.2 setosa  setosa     
 3          4.8         3.4          1.6         0.2 setosa  setosa     
 4          5.1         3.5          1.4         0.3 setosa  setosa     
 5          5.7         3.8          1.7         0.3 setosa  setosa     
 6          5.1         3.7          1.5         0.4 setosa  setosa     
 7          4.6         3.6          1           0.2 setosa  setosa     
 8          5           3            1.6         0.2 setosa  setosa     
 9          5.2         3.4          1.4         0.2 setosa  setosa     
10          5.4         3.4          1.5         0.4 setosa  setosa     
# ... with 35 more rows, and 3 more variables: .pred_setosa <dbl>,
#   .pred_versicolor <dbl>, .pred_virginica <dbl>
…
